TRABALHOVHDL parte 1/Questao05/simulation/qsim/questao05Arq.msim.vcd
$comment
	File created using the following command:
		vcd file questao05Arq.msim.vcd -direction
$end
$date
	Sat Jun 24 12:04:58 2017
$end
$version
	ModelSim Version 10.1d
$end
$timescale
	1ps
$end
$scope module questao05Arq_vlg_vec_tst $end
$var reg 8 ! D0 [7:0] $end
$var reg 8 " D1 [7:0] $end
$var reg 8 # D2 [7:0] $end
$var reg 8 $ D3 [7:0] $end
$var reg 2 % Sinal [1:0] $end
$var wire 1 & Saida [7] $end
$var wire 1 ' Saida [6] $end
$var wire 1 ( Saida [5] $end
$var wire 1 ) Saida [4] $end
$var wire 1 * Saida [3] $end
$var wire 1 + Saida [2] $end
$var wire 1 , Saida [1] $end
$var wire 1 - Saida [0] $end
$var wire 1 . sampler $end
$scope module i1 $end
$var wire 1 / gnd $end
$var wire 1 0 vcc $end
$var wire 1 1 unknown $end
$var tri1 1 2 devclrn $end
$var tri1 1 3 devpor $end
$var tri1 1 4 devoe $end
$var wire 1 5 Mux7~0_combout $end
$var wire 1 6 Mux7~1_combout $end
$var wire 1 7 Mux6~0_combout $end
$var wire 1 8 Mux6~1_combout $end
$var wire 1 9 Mux5~0_combout $end
$var wire 1 : Mux5~1_combout $end
$var wire 1 ; Mux4~0_combout $end
$var wire 1 < Mux4~1_combout $end
$var wire 1 = Mux3~0_combout $end
$var wire 1 > Mux3~1_combout $end
$var wire 1 ? Mux2~0_combout $end
$var wire 1 @ Mux2~1_combout $end
$var wire 1 A Mux1~0_combout $end
$var wire 1 B Mux1~1_combout $end
$var wire 1 C Mux0~0_combout $end
$var wire 1 D Mux0~1_combout $end
$var wire 1 E Sinal~combout [1] $end
$var wire 1 F Sinal~combout [0] $end
$var wire 1 G D3~combout [7] $end
$var wire 1 H D3~combout [6] $end
$var wire 1 I D3~combout [5] $end
$var wire 1 J D3~combout [4] $end
$var wire 1 K D3~combout [3] $end
$var wire 1 L D3~combout [2] $end
$var wire 1 M D3~combout [1] $end
$var wire 1 N D3~combout [0] $end
$var wire 1 O D2~combout [7] $end
$var wire 1 P D2~combout [6] $end
$var wire 1 Q D2~combout [5] $end
$var wire 1 R D2~combout [4] $end
$var wire 1 S D2~combout [3] $end
$var wire 1 T D2~combout [2] $end
$var wire 1 U D2~combout [1] $end
$var wire 1 V D2~combout [0] $end
$var wire 1 W D1~combout [7] $end
$var wire 1 X D1~combout [6] $end
$var wire 1 Y D1~combout [5] $end
$var wire 1 Z D1~combout [4] $end
$var wire 1 [ D1~combout [3] $end
$var wire 1 \ D1~combout [2] $end
$var wire 1 ] D1~combout [1] $end
$var wire 1 ^ D1~combout [0] $end
$var wire 1 _ D0~combout [7] $end
$var wire 1 ` D0~combout [6] $end
$var wire 1 a D0~combout [5] $end
$var wire 1 b D0~combout [4] $end
$var wire 1 c D0~combout [3] $end
$var wire 1 d D0~combout [2] $end
$var wire 1 e D0~combout [1] $end
$var wire 1 f D0~combout [0] $end
$upscope $end
$upscope $end
$enddefinitions $end
#0
$dumpvars
b0 !
b0 "
b0 #
b0 $
b0 %
0-
0,
0+
0*
0)
0(
0'
0&
x.
0/
10
x1
12
13
14
05
06
07
08
09
0:
0;
0<
0=
0>
0?
0@
0A
0B
0C
0D
0F
0E
0N
0M
0L
0K
0J
0I
0H
0G
0V
0U
0T
0S
0R
0Q
0P
0O
0^
0]
0\
0[
0Z
0Y
0X
0W
0f
0e
0d
0c
0b
0a
0`
0_
$end
#49000
b1 %
1F
0.
#75850
b1 "
1^
1.
15
16
1-
#94800
b1 !
1f
0.
#98000
b11 %
b10 %
0F
1E
1.
05
06
0-
#139000
b1 $
1N
0.
#147000
b11 %
1F
1.
1C
1A
1?
1=
1;
19
17
15
16
1-
#150000
b1 #
1V
0.
#151700
b11 "
b10 "
0^
1]
1.
#189600
b11 !
b10 !
0f
1e
0.
#196000
b1 %
b0 %
0F
0E
1.
1D
0C
0A
1@
0?
0=
1<
0;
09
18
05
1B
1>
1:
0D
0B
0@
0>
0<
0:
06
1&
1(
1*
1,
1'
1)
1+
0&
0'
0(
0)
0*
0+
0-
#227550
b11 "
1^
0.
#245000
b1 %
1F
1.
08
07
15
18
16
0,
1,
1-
#278000
b11 $
b10 $
0N
1M
0.
#284400
b11 !
1f
1.
#294000
b11 %
b10 %
0F
1E
0.
08
05
06
16
0,
0-
1-
#300000
b11 #
b10 #
0V
1U
1.
06
17
18
0-
1,
#303400
b111 "
b101 "
b100 "
0^
0]
1\
0.
#343000
b11 %
1F
1.
1C
1A
1?
1=
1;
19
15
#379200
b111 !
b101 !
b100 !
0f
0e
1d
0.
#379250
b101 "
1^
1.
#392000
b1 %
b0 %
0F
0E
0.
1D
0C
0A
1@
0?
0=
1<
0;
07
05
1B
1>
1:
16
0D
0B
0@
0>
0<
08
06
1&
1(
1*
1'
1)
1+
1-
0&
0'
0(
0)
0*
0,
0-
#417000
b11 $
1N
1.
#441000
b1 %
1F
0.
15
16
1-
#450000
b11 #
1V
1.
#455100
b111 "
b110 "
0^
1]
0.
05
18
06
1,
0-
#474000
b101 !
1f
1.
#490000
b11 %
b10 %
0F
1E
0.
09
08
17
0:
16
18
0,
0+
1-
1,
#530950
b111 "
1^
1.
#539000
b11 %
1F
0.
1C
1A
1?
1=
1;
19
15
#556000
b111 $
b101 $
b100 $
0N
0M
1L
1.
06
08
1:
0-
0,
1+
#568800
b111 !
b110 !
0f
1e
0.
#588000
b1 %
b0 %
0F
0E
1.
1D
0C
0A
1@
0?
0=
1<
0;
18
05
1B
1>
16
0D
0B
0@
0>
0<
06
1&
1(
1*
1,
1'
1)
1-
0&
0'
0(
0)
0*
0-
#600000
b111 #
b101 #
b100 #
0V
0U
1T
0.
#606800
b1111 "
b1011 "
b1001 "
b1000 "
0^
0]
0\
1[
1.
#637000
b1 %
1F
0.
1<
09
08
07
0:
1*
0,
0+
#663600
b111 !
1f
1.
#682650
b1001 "
1^
0.
15
16
1-
#686000
b11 %
b10 %
0F
1E
1.
0<
05
1:
06
0*
1+
0-
#695000
b101 $
1N
0.
#735000
b11 %
1F
1.
1C
1A
1?
1=
1<
1;
19
17
15
0<
16
1*
0*
1-
#750000
b101 #
1V
0.
#758400
b1111 !
b1011 !
b1001 !
b1000 !
0f
0e
0d
1c
1.
#758500
b1011 "
b1010 "
0^
1]
0.
#784000
b1 %
b0 %
0F
0E
1.
1D
0C
0A
1@
0?
0=
1<
09
18
07
05
1B
1>
0D
0B
0@
0>
0:
08
06
1&
1(
1*
1,
1'
1)
0&
0'
0(
0)
0+
0,
0-
#833000
b1 %
1F
0.
0<
0;
18
1<
0*
1,
1*
#834000
b111 $
b110 $
0N
1M
1.
#834350
b1011 "
1^
0.
15
16
1-
#853200
b1001 !
1f
1.
#882000
b11 %
b10 %
0F
1E
0.
0<
08
05
1:
06
16
0*
0,
1+
0-
1-
#900000
b111 #
b110 #
0V
1U
1.
06
17
18
0-
1,
#910200
b1111 "
b1101 "
b1100 "
0^
0]
1\
0.
#931000
b11 %
1F
1.
1C
1A
1?
1=
1<
1;
19
15
0<
1*
0*
#948000
b1011 !
b1010 !
0f
1e
0.
#973000
b111 $
1N
1.
16
1-
#980000
b1 %
b0 %
0F
0E
0.
1D
0C
0A
1@
0?
0=
1<
09
05
1B
1>
0D
0B
0@
0>
0:
06
1&
1(
1*
1'
1)
0&
0'
0(
0)
0+
0-
#986050
b1101 "
1^
1.
