TRABALHOVHDL parte 2/questao01/simulation/qsim/questao01.msim.vcd
$comment
	File created using the following command:
		vcd file questao01.msim.vcd -direction
$end
$date
	Tue Jun 27 16:20:13 2017
$end
$version
	ModelSim Version 10.1d
$end
$timescale
	1ps
$end
$scope module questao01_vlg_vec_tst $end
$var reg 3 ! a [2:0] $end
$var reg 3 " b [2:0] $end
$var reg 1 # ent $end
$var wire 1 $ saida1 [2] $end
$var wire 1 % saida1 [1] $end
$var wire 1 & saida1 [0] $end
$var wire 1 ' saida2 $end
$var wire 1 ( sampler $end
$scope module i1 $end
$var wire 1 ) gnd $end
$var wire 1 * vcc $end
$var wire 1 + unknown $end
$var tri1 1 , devclrn $end
$var tri1 1 - devpor $end
$var tri1 1 . devoe $end
$var wire 1 / ent~combout $end
$var wire 1 0 saida1~0_combout $end
$var wire 1 1 vet[1]~1_combout $end
$var wire 1 2 vet[1]~0_combout $end
$var wire 1 3 saida1~1_combout $end
$var wire 1 4 vet[2]~2_combout $end
$var wire 1 5 saida1~2_combout $end
$var wire 1 6 vet~3_combout $end
$var wire 1 7 b~combout [2] $end
$var wire 1 8 b~combout [1] $end
$var wire 1 9 b~combout [0] $end
$var wire 1 : a~combout [2] $end
$var wire 1 ; a~combout [1] $end
$var wire 1 < a~combout [0] $end
$upscope $end
$upscope $end
$enddefinitions $end
#0
$dumpvars
b0 !
b0 "
0#
0&
0%
0$
0'
x(
0)
1*
x+
1,
1-
1.
0/
00
01
02
03
04
05
06
09
08
07
0<
0;
0:
$end
#29630
b1 !
b1 "
19
1<
0(
11
13
1%
#59260
b11 !
b11 "
b10 !
b10 "
09
18
0<
1;
1(
01
14
03
15
0%
1$
#88890
b11 !
b11 "
19
1<
0(
11
13
1%
#89000
1#
1/
1(
12
10
1&
#118520
b111 !
b111 "
b101 !
b101 "
b100 !
b100 "
09
08
17
0<
0;
1:
0(
02
01
04
16
03
05
1'
0%
0$
#148150
b101 !
b101 "
19
1<
1(
12
11
13
1%
#177780
b111 !
b111 "
b110 !
b110 "
09
18
0<
1;
0(
02
01
14
03
15
0%
1$
#178000
0#
0/
1(
00
0&
#207410
b111 !
b111 "
19
1<
0(
11
13
1%
#237040
b11 !
b11 "
b1 !
b1 "
b0 !
b0 "
09
08
07
0<
0;
0:
1(
01
04
06
03
05
0'
0%
0$
#266670
b1 !
b1 "
19
1<
0(
11
13
1%
#267000
1#
1/
1(
12
10
1&
#296300
b11 !
b11 "
b10 !
b10 "
09
18
0<
1;
0(
02
01
14
03
15
0%
1$
#325930
b11 !
b11 "
19
1<
1(
12
11
13
1%
#355560
b111 !
b111 "
b101 !
b101 "
b100 !
b100 "
09
08
17
0<
0;
1:
0(
02
01
04
16
03
05
1'
0%
0$
#356000
0#
0/
1(
00
0&
#385190
b101 !
b101 "
19
1<
0(
11
13
1%
#414820
b111 !
b111 "
b110 !
b110 "
09
18
0<
1;
1(
01
14
03
15
0%
1$
#444450
b111 !
b111 "
19
1<
0(
11
13
1%
#445000
1#
1/
1(
12
10
1&
#474080
b11 !
b11 "
b1 !
b1 "
b0 !
b0 "
09
08
07
0<
0;
0:
0(
02
01
04
06
03
05
0'
0%
0$
#503710
b1 !
b1 "
19
1<
1(
12
11
13
1%
#533340
b11 !
b11 "
b10 !
b10 "
09
18
0<
1;
0(
02
01
14
03
15
0%
1$
#534000
0#
0/
1(
00
0&
#562970
b11 !
b11 "
19
1<
0(
11
13
1%
#592600
b111 !
b111 "
b101 !
b101 "
b100 !
b100 "
09
08
17
0<
0;
1:
1(
01
04
16
03
05
1'
0%
0$
#622230
b101 !
b101 "
19
1<
0(
11
13
1%
#623000
1#
1/
1(
12
10
1&
#651860
b111 !
b111 "
b110 !
b110 "
09
18
0<
1;
0(
02
01
14
03
15
0%
1$
#681490
b111 !
b111 "
19
1<
1(
12
11
13
1%
#711120
b11 !
b11 "
b1 !
b1 "
b0 !
b0 "
09
08
07
0<
0;
0:
0(
02
01
04
06
03
05
0'
0%
0$
#712000
0#
0/
1(
00
0&
#740750
b1 !
b1 "
19
1<
0(
11
13
1%
#770380
b11 !
b11 "
b10 !
b10 "
09
18
0<
1;
1(
01
14
03
15
0%
1$
#800010
b11 !
b11 "
19
1<
0(
11
13
1%
#801000
1#
1/
1(
12
10
1&
#829640
b111 !
b111 "
b101 !
b101 "
b100 !
b100 "
09
08
17
0<
0;
1:
0(
02
01
04
16
03
05
1'
0%
0$
#859270
b101 !
b101 "
19
1<
1(
12
11
13
1%
#888900
b111 !
b111 "
b110 !
b110 "
09
18
0<
1;
0(
02
01
14
03
15
0%
1$
#890000
0#
0/
1(
00
0&
#918530
b111 !
b111 "
19
1<
0(
11
13
1%
#948160
b11 !
b11 "
b1 !
b1 "
b0 !
b0 "
09
08
07
0<
0;
0:
1(
01
04
06
03
05
0'
0%
0$
#977790
b1 !
b1 "
19
1<
0(
11
13
1%
#979000
1#
1/
1(
12
10
1&
