TRABALHOVHDL parte 1/Questao06/simulation/qsim/questao06Arq.msim.vcd
$comment
	File created using the following command:
		vcd file questao06Arq.msim.vcd -direction
$end
$date
	Sat Jun 24 12:13:05 2017
$end
$version
	ModelSim Version 10.1d
$end
$timescale
	1ps
$end
$scope module questao06Arq_vlg_vec_tst $end
$var reg 1 ! D0 $end
$var reg 1 " D1 $end
$var reg 1 # X $end
$var wire 1 $ S $end
$var wire 1 % sampler $end
$scope module i1 $end
$var wire 1 & gnd $end
$var wire 1 ' vcc $end
$var wire 1 ( unknown $end
$var tri1 1 ) devclrn $end
$var tri1 1 * devpor $end
$var tri1 1 + devoe $end
$var wire 1 , D1~combout $end
$var wire 1 - X~combout $end
$var wire 1 . D0~combout $end
$var wire 1 / S~0_combout $end
$upscope $end
$upscope $end
$enddefinitions $end
#0
$dumpvars
0!
0"
0#
0$
x%
0&
1'
x(
1)
1*
1+
0,
0-
0.
0/
$end
#18000
1!
1.
0%
1/
1$
#28000
1"
1,
1%
#36000
0!
0.
0%
0/
0$
#38000
1#
1-
1%
1/
1$
#54000
1!
1.
0%
#56000
0"
0,
1%
0/
0$
#72000
0!
0.
0%
#76000
0#
0-
1%
#84000
1"
1,
0%
#90000
1!
1.
1%
1/
1$
#108000
0!
0.
0%
0/
0$
#112000
0"
0,
1%
#114000
1#
1-
0%
#126000
1!
1.
1%
#140000
1"
1,
0%
1/
1$
#144000
0!
0.
1%
#152000
0#
0-
0%
0/
0$
#162000
1!
1.
1%
1/
1$
#168000
0"
0,
0%
#180000
0!
0.
1%
0/
0$
#190000
1#
1-
0%
#196000
1"
1,
1%
1/
1$
#198000
1!
1.
0%
#216000
0!
0.
1%
#224000
0"
0,
0%
0/
0$
#228000
0#
0-
1%
#234000
1!
1.
0%
1/
1$
#252000
1"
0!
1,
0.
1%
0/
0$
#266000
1#
1-
0%
1/
1$
#270000
1!
1.
1%
#280000
0"
0,
0%
0/
0$
#288000
0!
0.
1%
#304000
0#
0-
0%
#306000
1!
1.
1%
1/
1$
#308000
1"
1,
0%
#324000
0!
0.
1%
0/
0$
#336000
0"
0,
0%
#342000
1#
1!
1-
1.
1%
#360000
0!
0.
0%
#364000
1"
1,
1%
1/
1$
#378000
1!
1.
0%
#380000
0#
0-
1%
#392000
0"
0,
0%
#396000
0!
0.
1%
0/
0$
#414000
1!
1.
0%
1/
1$
#418000
1#
1-
1%
0/
0$
#420000
1"
1,
0%
1/
1$
#432000
0!
0.
1%
#448000
0"
0,
0%
0/
0$
#450000
1!
1.
1%
#456000
0#
0-
0%
1/
1$
#468000
0!
0.
1%
0/
0$
#476000
1"
1,
0%
#486000
1!
1.
1%
1/
1$
#494000
1#
1-
0%
#504000
0"
0!
0,
0.
1%
0/
0$
#522000
1!
1.
0%
#532000
0#
1"
0-
1,
1%
1/
1$
#540000
0!
0.
0%
0/
0$
#558000
1!
1.
1%
1/
1$
#560000
0"
0,
0%
#570000
1#
1-
1%
0/
0$
#576000
0!
0.
0%
#588000
1"
1,
1%
1/
1$
#594000
1!
1.
0%
#608000
0#
0-
1%
#612000
0!
0.
0%
0/
0$
#616000
0"
0,
1%
#630000
1!
1.
0%
1/
1$
#644000
1"
1,
1%
#646000
1#
1-
0%
#648000
0!
0.
1%
#666000
1!
1.
0%
#672000
0"
0,
1%
0/
0$
#684000
0#
0!
0-
0.
0%
#700000
1"
1,
1%
#702000
1!
1.
0%
1/
1$
#720000
0!
0.
1%
0/
0$
#722000
1#
1-
0%
1/
1$
#728000
0"
0,
1%
0/
0$
#738000
1!
1.
0%
#756000
1"
0!
1,
0.
1%
1/
1$
#760000
0#
0-
0%
0/
0$
#774000
1!
1.
1%
1/
1$
#784000
0"
0,
0%
#792000
0!
0.
1%
0/
0$
#798000
1#
1-
0%
#810000
1!
1.
1%
#812000
1"
1,
0%
1/
1$
#828000
0!
0.
1%
#836000
0#
0-
0%
0/
0$
#840000
0"
0,
1%
#846000
1!
1.
0%
1/
1$
#864000
0!
0.
1%
0/
0$
#868000
1"
1,
0%
#874000
1#
1-
1%
1/
1$
#882000
1!
1.
0%
#896000
0"
0,
1%
0/
0$
#900000
0!
0.
0%
#912000
0#
0-
1%
#918000
1!
1.
0%
1/
1$
#924000
1"
1,
1%
#936000
0!
0.
0%
0/
0$
#950000
1#
1-
1%
1/
1$
#952000
0"
0,
0%
0/
0$
#954000
1!
1.
1%
#972000
0!
0.
0%
#980000
1"
1,
1%
1/
1$
#988000
0#
0-
0%
0/
0$
#990000
1!
1.
1%
1/
1$
