TRABALHOVHDL parte 1/Questao01/simulation/qsim/questao01Arq.msim.vcd
$comment
	File created using the following command:
		vcd file questao01Arq.msim.vcd -direction
$end
$date
	Sat Jun 24 10:52:04 2017
$end
$version
	ModelSim Version 10.1d
$end
$timescale
	1ps
$end
$scope module questao01Arq_vlg_vec_tst $end
$var reg 1 ! a $end
$var reg 1 " b $end
$var wire 1 # s $end
$var wire 1 $ sampler $end
$scope module i1 $end
$var wire 1 % gnd $end
$var wire 1 & vcc $end
$var wire 1 ' unknown $end
$var tri1 1 ( devclrn $end
$var tri1 1 ) devpor $end
$var tri1 1 * devoe $end
$var wire 1 + a~combout $end
$var wire 1 , b~combout $end
$var wire 1 - s~0_combout $end
$upscope $end
$upscope $end
$enddefinitions $end
#0
$dumpvars
0!
0"
0#
x$
0%
1&
x'
1(
1)
1*
0+
0,
0-
$end
#80000
1"
1,
0$
1-
1#
#103000
1!
1+
1$
0-
0#
#160000
0"
0,
0$
1-
1#
#206000
0!
0+
1$
0-
0#
#240000
1"
1,
0$
1-
1#
#309000
1!
1+
1$
0-
0#
#320000
0"
0,
0$
1-
1#
#400000
1"
1,
1$
0-
0#
#412000
0!
0+
0$
1-
1#
#480000
0"
0,
1$
0-
0#
#515000
1!
1+
0$
1-
1#
#560000
1"
1,
1$
0-
0#
#618000
0!
0+
0$
1-
1#
#640000
0"
0,
1$
0-
0#
#720000
1"
1,
0$
1-
1#
#721000
1!
1+
1$
0-
0#
#800000
0"
0,
0$
1-
1#
#824000
0!
0+
1$
0-
0#
#880000
1"
1,
0$
1-
1#
#927000
1!
1+
1$
0-
0#
#960000
0"
0,
0$
1-
1#
#999000
0!
0+
1$
0-
0#
