TRABALHOVHDL parte 2/questao03/item c/simulation/qsim/questao03itemc.msim.vcd
$comment
	File created using the following command:
		vcd file questao03itemc.msim.vcd -direction
$end
$date
	Tue Jun 27 19:42:41 2017
$end
$version
	ModelSim Version 10.1d
$end
$timescale
	1ps
$end
$scope module questao03itemc_vlg_vec_tst $end
$var reg 1 ! cicloclk $end
$var reg 6 " ent [5:0] $end
$var reg 1 # preset $end
$var reg 1 $ reset $end
$var wire 1 % saida [5] $end
$var wire 1 & saida [4] $end
$var wire 1 ' saida [3] $end
$var wire 1 ( saida [2] $end
$var wire 1 ) saida [1] $end
$var wire 1 * saida [0] $end
$var wire 1 + sampler $end
$scope module i1 $end
$var wire 1 , gnd $end
$var wire 1 - vcc $end
$var wire 1 . unknown $end
$var tri1 1 / devclrn $end
$var tri1 1 0 devpor $end
$var tri1 1 1 devoe $end
$var wire 1 2 cicloclk~combout $end
$var wire 1 3 cicloclk~clkctrl_outclk $end
$var wire 1 4 saida[0]~reg0feeder_combout $end
$var wire 1 5 preset~combout $end
$var wire 1 6 preset~clkctrl_outclk $end
$var wire 1 7 saida[0]~reg0_regout $end
$var wire 1 8 saida[1]~reg0feeder_combout $end
$var wire 1 9 saida[1]~reg0_regout $end
$var wire 1 : saida[2]~reg0feeder_combout $end
$var wire 1 ; saida[2]~reg0_regout $end
$var wire 1 < saida[3]~reg0_regout $end
$var wire 1 = saida[4]~reg0feeder_combout $end
$var wire 1 > saida[4]~reg0_regout $end
$var wire 1 ? saida[5]~reg0_regout $end
$var wire 1 @ ent~combout [5] $end
$var wire 1 A ent~combout [4] $end
$var wire 1 B ent~combout [3] $end
$var wire 1 C ent~combout [2] $end
$var wire 1 D ent~combout [1] $end
$var wire 1 E ent~combout [0] $end
$upscope $end
$upscope $end
$enddefinitions $end
#0
$dumpvars
0!
b0 "
0#
0$
0*
0)
0(
0'
0&
0%
x+
0,
1-
x.
1/
10
11
02
03
04
05
06
07
08
09
0:
0;
0<
0=
0>
0?
0E
0D
0C
0B
0A
0@
$end
#8950
1!
12
13
0+
#17900
0!
02
03
1+
#26850
1!
12
13
0+
#35800
0!
02
03
1+
#44750
1!
12
13
0+
#47320
1#
15
16
1+
#53700
0!
02
03
0+
#62650
1!
12
13
1+
#69000
b1 "
1E
0+
14
#71600
0!
02
03
1+
#78000
1$
0+
#80550
1!
12
13
1+
#89500
0!
02
03
0+
#94640
0#
05
06
1+
#98450
1!
12
13
0+
17
1*
#107400
0!
02
03
1+
#116350
1!
12
13
0+
#125300
0!
02
03
1+
#134250
1!
12
13
0+
#138000
b11 "
b10 "
0E
1D
1+
04
18
#141960
1#
15
16
0+
07
0*
#143200
0!
02
03
1+
#152150
1!
12
13
0+
#156000
0$
1+
#161100
0!
02
03
0+
#170050
1!
12
13
1+
#179000
0!
02
03
0+
#187950
1!
12
13
1+
#189280
0#
05
06
0+
#196900
0!
02
03
1+
#205850
1!
12
13
0+
19
1)
#207000
b11 "
1E
1+
14
#214800
0!
02
03
0+
#223750
1!
12
13
1+
17
1*
#232700
0!
02
03
0+
#234000
1$
1+
#236600
1#
15
16
0+
09
07
0)
0*
#241650
1!
12
13
1+
#250600
0!
02
03
0+
#259550
1!
12
13
1+
#268500
0!
02
03
0+
#276000
b111 "
b101 "
b100 "
0E
0D
1C
1+
04
08
1:
#277450
1!
12
13
0+
#283920
0#
05
06
1+
#286400
0!
02
03
0+
#295350
1!
12
13
1+
1;
1(
#304300
0!
02
03
0+
#312000
0$
1+
#313250
1!
12
13
0+
#322200
0!
02
03
1+
#331150
1!
12
13
0+
#331240
1#
15
16
1+
0;
0(
#340100
0!
02
03
0+
#345000
b101 "
1E
1+
14
#349050
1!
12
13
0+
#358000
0!
02
03
1+
#366950
1!
12
13
0+
#375900
0!
02
03
1+
#378560
0#
05
06
0+
#384850
1!
12
13
1+
1;
17
1(
1*
#390000
1$
0+
#393800
0!
02
03
1+
#402750
1!
12
13
0+
#411700
0!
02
03
1+
#414000
b111 "
b110 "
0E
1D
0+
04
18
#420650
1!
12
13
1+
19
07
1)
0*
#425880
1#
15
16
0+
0;
09
0(
0)
#429600
0!
02
03
1+
#438550
1!
12
13
0+
#447500
0!
02
03
1+
#456450
1!
12
13
0+
#465400
0!
02
03
1+
#468000
0$
0+
#473200
0#
05
06
1+
#474350
1!
12
13
0+
1;
19
1(
1)
#483000
b111 "
1E
1+
14
#483300
0!
02
03
0+
#492250
1!
12
13
1+
17
1*
#501200
0!
02
03
0+
#510150
1!
12
13
1+
#519100
0!
02
03
0+
#520520
1#
15
16
1+
0;
09
07
0(
0)
0*
#528050
1!
12
13
0+
#537000
0!
02
03
1+
#545950
1!
12
13
0+
#546000
1$
1+
#552000
b1111 "
b1011 "
b1001 "
b1000 "
0E
0D
0C
1B
0+
04
08
0:
#554900
0!
02
03
1+
#563850
1!
12
13
0+
#567840
0#
05
06
1+
#572800
0!
02
03
0+
#581750
1!
12
13
1+
1<
1'
#590700
0!
02
03
0+
#599650
1!
12
13
1+
#608600
0!
02
03
0+
#615160
1#
15
16
1+
0<
0'
#617550
1!
12
13
0+
#621000
b1001 "
1E
1+
14
#624000
0$
0+
#626500
0!
02
03
1+
#635450
1!
12
13
0+
#644400
0!
02
03
1+
#653350
1!
12
13
0+
#662300
0!
02
03
1+
#662480
0#
05
06
0+
#671250
1!
12
13
1+
1<
17
1'
1*
#680200
0!
02
03
0+
#689150
1!
12
13
1+
#690000
b1011 "
b1010 "
0E
1D
0+
04
18
#698100
0!
02
03
1+
#702000
1$
0+
#707050
1!
12
13
1+
19
07
1)
0*
#709800
1#
15
16
0+
0<
09
0'
0)
#716000
0!
02
03
1+
#724950
1!
12
13
0+
#733900
0!
02
03
1+
#742850
1!
12
13
0+
#751800
0!
02
03
1+
#757120
0#
05
06
0+
#759000
b1011 "
1E
1+
14
#760750
1!
12
13
0+
1<
19
17
1'
1)
1*
#769700
0!
02
03
1+
#778650
1!
12
13
0+
#780000
0$
1+
#787600
0!
02
03
0+
#796550
1!
12
13
1+
#804440
1#
15
16
0+
0<
09
07
0'
0)
0*
#805500
0!
02
03
1+
#814450
1!
12
13
0+
#823400
0!
02
03
1+
#828000
b1111 "
b1101 "
b1100 "
0E
0D
1C
0+
04
08
1:
#832350
1!
12
13
1+
#841300
0!
02
03
0+
#850250
1!
12
13
1+
#851760
0#
05
06
0+
#858000
1$
1+
#859200
0!
02
03
0+
#868150
1!
12
13
1+
1<
1;
1'
1(
#877100
0!
02
03
0+
#886050
1!
12
13
1+
#895000
0!
02
03
0+
#897000
b1101 "
1E
1+
14
#899080
1#
15
16
0+
0<
0;
0'
0(
#903950
1!
12
13
1+
#912900
0!
02
03
0+
#921850
1!
12
13
1+
#930800
0!
02
03
0+
#936000
0$
1+
#939750
1!
12
13
0+
#946400
0#
05
06
1+
#948700
0!
02
03
0+
#957650
1!
12
13
1+
1<
1;
17
1'
1(
1*
#966000
b1111 "
b1110 "
0E
1D
0+
04
18
#966600
0!
02
03
1+
#975550
1!
12
13
0+
19
07
1)
0*
#984500
0!
02
03
1+
#993450
1!
12
13
0+
#993720
1#
15
16
1+
0<
0;
09
0'
0(
0)
